; Engine configuration file.
; It's best edited using the editor UI and not directly,
; since the parameters that go here are not all obvious.
;
; Format:
;   [section] ; section goes between []
;   param=value ; assign values to parameters

config_version=4

[application]

config/name="DUO"
run/main_scene="res://Scenes/Launcher.tscn"
config/icon="res://icon.png"

[display]

window/dpi/allow_hidpi=true
window/stretch/mode="2d"
window/stretch/aspect="keep"

[gui]

common/drop_mouse_on_gui_input_disabled=true

[locale]

locale_filter=[ 1, [ "en_US", "es_MX", "fr_FR", "ja_JP" ] ]
translations=PoolStringArray( "res://Locales/LocaleSheet.en_US.translation", "res://Locales/LocaleSheet.es_MX.translation", "res://Locales/LocaleSheet.fr_FR.translation", "res://Locales/LocaleSheet.ja_JP.translation" )

[mono]

project/assembly_name="DUO"

[physics]

common/enable_pause_aware_picking=true

[rendering]

environment/default_environment="res://default_env.tres"
